tests/test_results.txt

==================================================
===== calibration_engine_tb.vvp =====
==================================================

VCD info: dumpfile out/calibration_engine_tb.vcd opened for output.
time	rst	store	y1	y2	y3	y_stable	slope	intercept	slope_stored	intercept_stored
10000	1	0	0	0	0	0		0	0		0		0
20000	0	0	9	15	21	15		2	1		0		0
PASS: slope=2 intercept=1
30000	0	1	9	15	21	15		2	1		2		1
40000	0	0	16	13	10	13		-1	20		2		1
PASS: slope=-1 intercept=20
50000	0	0	16	13	10	13		-1	20		2		1
60000	0	1	16	13	10	13		-1	20		-1		20
70000	0	0	5	5	5	5		0	5		-1		20
PASS: slope=0 intercept=5
80000	0	1	5	5	5	5		0	5		0		5
90000	0	0	10	19	28	19		3	-2		0		5
PASS: slope=3 intercept=-2
100000	0	1	10	19	28	19		3	-2		0		5
110000	1	0	10	19	28	19		3	-2		0		0
120000	0	0	10	19	28	19		3	-2		0		0
130000	0	0	10	19	28	19		3	-2		0		0
tests/calibration_engine_tb.v:242: $finish called at 136000 (1ps)



==================================================
===== display_driver_tb.vvp =====
==================================================

VCD info: dumpfile out/display_driver_tb.vcd opened for output.
time	ph_value	pos	digit	dp	an	seg
10000	0		-1	0	1	1111	1000000
20000	0		-1	0	1	1111	1000000
30000	0		-1	0	1	1111	1000000
40000	1234		0	1	1	1110	1111001
50000	1234		1	2	0	1101	0100100
60000	1234		1	2	0	1101	0100100
70000	1234		1	2	0	1101	0100100
80000	1234		1	2	0	1101	0100100
90000	1234		2	3	1	1011	0110000
100000	1234		2	3	1	1011	0110000
110000	1234		2	3	1	1011	0110000
120000	1234		2	3	1	1011	0110000
130000	1234		3	4	1	0111	0011001
140000	1234		3	4	1	0111	0011001
150000	1234		3	4	1	0111	0011001
160000	7049		3	9	1	0111	0010000
170000	7049		0	7	1	1110	1111000
180000	7049		0	7	1	1110	1111000
190000	7049		0	7	1	1110	1111000
200000	7049		0	7	1	1110	1111000
210000	7049		1	0	0	1101	1000000
220000	7049		1	0	0	1101	1000000
230000	7049		1	0	0	1101	1000000
240000	7049		1	0	0	1101	1000000
250000	7049		2	4	1	1011	0011001
260000	7049		2	4	1	1011	0011001
270000	7049		2	4	1	1011	0011001
280000	987		2	8	1	1011	0000000
290000	987		3	7	1	0111	1111000
300000	987		3	7	1	0111	1111000
310000	987		3	7	1	0111	1111000
320000	987		3	7	1	0111	1111000
330000	987		0	0	1	1110	1000000
340000	987		0	0	1	1110	1000000
350000	987		0	0	1	1110	1000000
360000	987		0	0	1	1110	1000000
370000	987		1	9	0	1101	0010000
380000	987		1	9	0	1101	0010000
390000	987		1	9	0	1101	0010000
400000	987		-1	0	1	1111	1000000
410000	987		-1	0	1	1111	1000000
420000	987		-1	0	1	1111	1000000
430000	987		-1	0	1	1111	1000000
440000	14		2	1	1	1011	1111001
450000	14		3	4	1	0111	0011001
460000	14		3	4	1	0111	0011001
470000	14		3	4	1	0111	0011001
480000	14		3	4	1	0111	0011001
490000	14		0	0	1	1110	1000000
500000	14		0	0	1	1110	1000000
510000	14		0	0	1	1110	1000000
520000	14		0	0	1	1110	1000000
530000	14		1	0	0	1101	1000000
540000	14		1	0	0	1101	1000000
550000	14		1	0	0	1101	1000000
tests/display_driver_tb.v:180: $finish called at 552000 (1ps)



==================================================
===== ph_compute_tb.vvp =====
==================================================

VCD info: dumpfile out/ph_compute_tb.vcd opened for output.
time	y_now	slope	intercept	ph(x100)
10000	0	0	0		0
20000	9	2	1		400
PASS: pH = 400 (x100)
30000	28	3	-2		1000
PASS: pH = 1000 (x100)
40000	16	-1	20		400
PASS: pH = 400 (x100)
50000	7	1	0		700
PASS: pH = 700 (x100)
60000	20	0	10		0
PASS: pH = 0 (x100)
70000	10	4	2		200
PASS: pH = 200 (x100)
80000	10	4	2		200
90000	10	4	2		200
tests/ph_compute_tb.v:169: $finish called at 98000 (1ps)



==================================================
===== ph_meter_tb.vvp =====
==================================================

VCD info: dumpfile out/ph_meter_tb.vcd opened for output.
time	sense	latched	slope	intercept	ph	ready	state
10000	0	0	292	0		0	0	0

================================================================
                             TEST 00 - Initial Calibration Store
================================================================
20000	0	0	292	0		0	0	0
30000	0	0	292	0		0	0	0
40000	0	0	292	0		0	0	0
Calibration Summary
  Slope (actual)        : 292
  Intercept (actual)    : 0
  Slope (expected)      : 292
  Intercept (expected)  : 0
RESULT                 : PASS

================================================================
                                   TEST 01 - Power On Transition
================================================================
50000	0	0	292	0		0	0	0
60000	0	0	292	0		0	0	1
Power On Summary
  FSM State            :    STANDBY
  ph_ready             : 0
RESULT                 : PASS

================================================================
                                 TEST 02 - Noisy Input Rejection
================================================================
70000	2050	0	292	0		0	0	1
80000	2037	0	292	0		0	0	1
90000	2049	0	292	0		0	0	1
100000	2038	0	292	0		0	0	1
110000	2038	0	292	0		0	0	1
120000	2038	0	292	0		0	0	1
Noise Rejection Summary
  FSM State            :    STANDBY
  ph_ready             : 0
  Latched ADC Value    : 0
RESULT                 : PASS

================================================================
                                       TEST 03 - Measure pH 7.00
================================================================
130000	2044	0	292	0		0	0	1
140000	2045	0	292	0		0	0	1
150000	2046	0	292	0		0	0	1
160000	2044	0	292	0		0	0	1
170000	2045	0	292	0		0	0	1
180000	2046	0	292	0		0	0	1
190000	2044	0	292	0		0	0	1
200000	2045	0	292	0		0	0	1
210000	2046	0	292	0		0	0	1
220000	2044	0	292	0		0	0	1
230000	2044	2046	292	0		700	1	2
240000	2044	2046	292	0		700	1	2
250000	2044	2046	292	0		700	1	2
260000	2044	2046	292	0		700	1	2
270000	2044	2046	292	0		700	1	2
280000	2044	2046	292	0		700	1	2
290000	2044	2046	292	0		700	1	2
300000	2044	2046	292	0		700	1	2
310000	2044	2046	292	0		700	1	2
Measurement Summary
  ADC Input Base        : 2044
  Latched ADC Value     : 2046
  FSM State             :    DISPLAY
  ph_ready              : 1
  Slope                 : 292
  Intercept             : 0
  Computed pH (x100)    : 700
  Expected pH (x100)    : 700
  Display Digits        : 0700
  Decimal Point (dp)    : 1
  Check pH Value        : PASS
  Check Display Digits  : PASS
RESULT                 : PASS
320000	2044	2046	292	0		700	1	2
330000	2044	2046	292	0		700	1	2
340000	2044	2046	292	0		700	1	2
350000	2044	2046	292	0		700	1	2
360000	2044	2046	292	0		700	1	2
370000	2044	2046	292	0		700	1	2
380000	2044	2046	292	0		700	1	2
390000	2044	2046	292	0		700	1	2
400000	2044	2046	292	0		700	1	2
410000	2044	2046	292	0		700	1	2
420000	2044	2046	292	0		700	1	2
430000	2044	2046	292	0		700	1	2
440000	2044	2046	292	0		700	0	1
450000	2044	2046	292	0		700	0	1

================================================================
                                       TEST 04 - Measure pH 4.00
================================================================
460000	1168	2046	292	0		700	0	1
470000	1169	2046	292	0		700	0	1
480000	1170	2046	292	0		700	0	1
490000	1168	2046	292	0		700	0	1
500000	1169	2046	292	0		700	0	1
510000	1170	2046	292	0		700	0	1
520000	1168	2046	292	0		700	0	1
530000	1169	2046	292	0		700	0	1
540000	1170	2046	292	0		700	0	1
550000	1168	1170	292	0		400	1	2
560000	1168	1170	292	0		400	1	2
570000	1168	1170	292	0		400	1	2
580000	1168	1170	292	0		400	1	2
590000	1168	1170	292	0		400	1	2
600000	1168	1170	292	0		400	1	2
610000	1168	1170	292	0		400	1	2
620000	1168	1170	292	0		400	1	2
630000	1168	1170	292	0		400	1	2
640000	1168	1170	292	0		400	1	2
650000	1168	1170	292	0		400	1	2
Measurement Summary
  ADC Input Base        : 1168
  Latched ADC Value     : 1170
  FSM State             :    DISPLAY
  ph_ready              : 1
  Slope                 : 292
  Intercept             : 0
  Computed pH (x100)    : 400
  Expected pH (x100)    : 400
  Display Digits        : 0400
  Decimal Point (dp)    : 0
  Check pH Value        : PASS
  Check Display Digits  : PASS
RESULT                 : PASS
660000	1168	1170	292	0		400	1	2
670000	1168	1170	292	0		400	1	2
680000	1168	1170	292	0		400	1	2
690000	1168	1170	292	0		400	1	2
700000	1168	1170	292	0		400	1	2
710000	1168	1170	292	0		400	1	2
720000	1168	1170	292	0		400	1	2
730000	1168	1170	292	0		400	1	2
740000	1168	1170	292	0		400	1	2
750000	1168	1170	292	0		400	1	2
760000	1168	1170	292	0		400	0	1
770000	1168	1170	292	0		400	0	1

================================================================
                                      TEST 05 - Measure pH 10.00
================================================================
780000	2920	1170	292	0		400	0	1
790000	2921	1170	292	0		400	0	1
800000	2922	1170	292	0		400	0	1
810000	2920	1170	292	0		400	0	1
820000	2921	1170	292	0		400	0	1
830000	2922	1170	292	0		400	0	1
840000	2920	1170	292	0		400	0	1
850000	2921	1170	292	0		400	0	1
860000	2922	1170	292	0		400	0	1
870000	2920	2922	292	0		1000	1	2
880000	2920	2922	292	0		1000	1	2
890000	2920	2922	292	0		1000	1	2
900000	2920	2922	292	0		1000	1	2
910000	2920	2922	292	0		1000	1	2
920000	2920	2922	292	0		1000	1	2
930000	2920	2922	292	0		1000	1	2
940000	2920	2922	292	0		1000	1	2
950000	2920	2922	292	0		1000	1	2
960000	2920	2922	292	0		1000	1	2
970000	2920	2922	292	0		1000	1	2
980000	2920	2922	292	0		1000	1	2
Measurement Summary
  ADC Input Base        : 2920
  Latched ADC Value     : 2922
  FSM State             :    DISPLAY
  ph_ready              : 1
  Slope                 : 292
  Intercept             : 0
  Computed pH (x100)    : 1000
  Expected pH (x100)    : 1000
  Display Digits        : 1000
  Decimal Point (dp)    : 1
  Check pH Value        : PASS
  Check Display Digits  : PASS
RESULT                 : PASS
990000	2920	2922	292	0		1000	1	2
1000000	2920	2922	292	0		1000	1	2
1010000	2920	2922	292	0		1000	1	2
1020000	2920	2922	292	0		1000	1	2
1030000	2920	2922	292	0		1000	1	2
1040000	2920	2922	292	0		1000	1	2
1050000	2920	2922	292	0		1000	1	2
1060000	2920	2922	292	0		1000	1	2
1070000	2920	2922	292	0		1000	1	2
1080000	2920	2922	292	0		1000	0	1
1090000	2920	2922	292	0		1000	0	1

================================================================
                              TEST 06 - Resolution Check pH 7.01
================================================================
1100000	2047	2922	292	0		1000	0	1
1110000	2048	2922	292	0		1000	0	1
1120000	2049	2922	292	0		1000	0	1
1130000	2047	2922	292	0		1000	0	1
1140000	2048	2922	292	0		1000	0	1
1150000	2049	2922	292	0		1000	0	1
1160000	2047	2922	292	0		1000	0	1
1170000	2048	2922	292	0		1000	0	1
1180000	2049	2922	292	0		1000	0	1
1190000	2047	2049	292	0		701	1	2
1200000	2047	2049	292	0		701	1	2
1210000	2047	2049	292	0		701	1	2
1220000	2047	2049	292	0		701	1	2
1230000	2047	2049	292	0		701	1	2
1240000	2047	2049	292	0		701	1	2
1250000	2047	2049	292	0		701	1	2
1260000	2047	2049	292	0		701	1	2
1270000	2047	2049	292	0		701	1	2
1280000	2047	2049	292	0		701	1	2
Measurement Summary
  ADC Input Base        : 2047
  Latched ADC Value     : 2049
  FSM State             :    DISPLAY
  ph_ready              : 1
  Slope                 : 292
  Intercept             : 0
  Computed pH (x100)    : 701
  Expected pH (x100)    : 701
  Display Digits        : 0701
  Decimal Point (dp)    : 1
  Check pH Value        : PASS
  Check Display Digits  : PASS
RESULT                 : PASS
1290000	2047	2049	292	0		701	1	2
1300000	2047	2049	292	0		701	1	2
1310000	2047	2049	292	0		701	1	2
1320000	2047	2049	292	0		701	1	2
1330000	2047	2049	292	0		701	1	2
1340000	2047	2049	292	0		701	1	2
1350000	2047	2049	292	0		701	1	2
1360000	2047	2049	292	0		701	1	2
1370000	2047	2049	292	0		701	1	2
1380000	2047	2049	292	0		701	1	2
1390000	2047	2049	292	0		701	1	2
1400000	2047	2049	292	0		701	0	1
1410000	2047	2049	292	0		701	0	1

================================================================
                              TEST 07 - Resolution Check pH 7.02
================================================================
1420000	2050	2049	292	0		701	0	1
1430000	2051	2049	292	0		701	0	1
1440000	2052	2049	292	0		701	0	1
1450000	2050	2049	292	0		701	0	1
1460000	2051	2049	292	0		701	0	1
1470000	2052	2049	292	0		701	0	1
1480000	2050	2049	292	0		701	0	1
1490000	2051	2050	292	0		702	1	2
1500000	2052	2050	292	0		702	1	2
1510000	2050	2050	292	0		702	1	2
1520000	2050	2050	292	0		702	1	2
1530000	2050	2050	292	0		702	1	2
1540000	2050	2050	292	0		702	1	2
1550000	2050	2050	292	0		702	1	2
1560000	2050	2050	292	0		702	1	2
1570000	2050	2050	292	0		702	1	2
1580000	2050	2050	292	0		702	1	2
1590000	2050	2050	292	0		702	1	2
1600000	2050	2050	292	0		702	1	2
1610000	2050	2050	292	0		702	1	2
Measurement Summary
  ADC Input Base        : 2050
  Latched ADC Value     : 2050
  FSM State             :    DISPLAY
  ph_ready              : 1
  Slope                 : 292
  Intercept             : 0
  Computed pH (x100)    : 702
  Expected pH (x100)    : 702
  Display Digits        : 0702
  Decimal Point (dp)    : 0
  Check pH Value        : PASS
  Check Display Digits  : PASS
RESULT                 : PASS
1620000	2050	2050	292	0		702	1	2
1630000	2050	2050	292	0		702	1	2
1640000	2050	2050	292	0		702	1	2
1650000	2050	2050	292	0		702	1	2
1660000	2050	2050	292	0		702	1	2
1670000	2050	2050	292	0		702	1	2
1680000	2050	2050	292	0		702	1	2
1690000	2050	2050	292	0		702	1	2
1700000	2050	2050	292	0		702	0	1
1710000	2050	2050	292	0		702	0	1

================================================================
                           TEST 08 - Low-End Range Check pH 0.00
================================================================
1720000	0	2050	292	0		702	0	1
1730000	1	2050	292	0		702	0	1
1740000	2	2050	292	0		702	0	1
1750000	0	2050	292	0		702	0	1
1760000	1	2050	292	0		702	0	1
1770000	2	2050	292	0		702	0	1
1780000	0	2050	292	0		702	0	1
1790000	1	2050	292	0		702	0	1
1800000	2	2050	292	0		702	0	1
1810000	0	2	292	0		0	1	2
1820000	0	2	292	0		0	1	2
1830000	0	2	292	0		0	1	2
1840000	0	2	292	0		0	1	2
1850000	0	2	292	0		0	1	2
1860000	0	2	292	0		0	1	2
1870000	0	2	292	0		0	1	2
1880000	0	2	292	0		0	1	2
1890000	0	2	292	0		0	1	2
1900000	0	2	292	0		0	1	2
1910000	0	2	292	0		0	1	2
Measurement Summary
  ADC Input Base        : 0
  Latched ADC Value     : 2
  FSM State             :    DISPLAY
  ph_ready              : 1
  Slope                 : 292
  Intercept             : 0
  Computed pH (x100)    : 0
  Expected pH (x100)    : 0
  Display Digits        : 0000
  Decimal Point (dp)    : 1
  Check pH Value        : PASS
  Check Display Digits  : PASS
RESULT                 : PASS
1920000	0	2	292	0		0	1	2
1930000	0	2	292	0		0	1	2
1940000	0	2	292	0		0	1	2
1950000	0	2	292	0		0	1	2
1960000	0	2	292	0		0	1	2
1970000	0	2	292	0		0	1	2
1980000	0	2	292	0		0	1	2
1990000	0	2	292	0		0	1	2
2000000	0	2	292	0		0	1	2
2010000	0	2	292	0		0	1	2
2020000	0	2	292	0		0	0	1
2030000	0	2	292	0		0	0	1

================================================================
                         TEST 09 - High-End Range Check pH 14.00
================================================================
2040000	4088	2	292	0		0	0	1
2050000	4089	2	292	0		0	0	1
2060000	4090	2	292	0		0	0	1
2070000	4088	2	292	0		0	0	1
2080000	4089	2	292	0		0	0	1
2090000	4090	2	292	0		0	0	1
2100000	4088	2	292	0		0	0	1
2110000	4089	2	292	0		0	0	1
2120000	4090	2	292	0		0	0	1
2130000	4088	4090	292	0		1400	1	2
2140000	4088	4090	292	0		1400	1	2
2150000	4088	4090	292	0		1400	1	2
2160000	4088	4090	292	0		1400	1	2
2170000	4088	4090	292	0		1400	1	2
2180000	4088	4090	292	0		1400	1	2
2190000	4088	4090	292	0		1400	1	2
2200000	4088	4090	292	0		1400	1	2
2210000	4088	4090	292	0		1400	1	2
2220000	4088	4090	292	0		1400	1	2
2230000	4088	4090	292	0		1400	1	2
2240000	4088	4090	292	0		1400	1	2
Measurement Summary
  ADC Input Base        : 4088
  Latched ADC Value     : 4090
  FSM State             :    DISPLAY
  ph_ready              : 1
  Slope                 : 292
  Intercept             : 0
  Computed pH (x100)    : 1400
  Expected pH (x100)    : 1400
  Display Digits        : 1400
  Decimal Point (dp)    : 1
  Check pH Value        : PASS
  Check Display Digits  : PASS
RESULT                 : PASS
2250000	4088	4090	292	0		1400	1	2
2260000	4088	4090	292	0		1400	1	2
2270000	4088	4090	292	0		1400	1	2
2280000	4088	4090	292	0		1400	1	2
2290000	4088	4090	292	0		1400	1	2
2300000	4088	4090	292	0		1400	1	2
2310000	4088	4090	292	0		1400	1	2
2320000	4088	4090	292	0		1400	1	2
2330000	4088	4090	292	0		1400	1	2
2340000	4088	4090	292	0		1400	0	1
2350000	4088	4090	292	0		1400	0	1

================================================================
                    TEST 10 - Display Disable When System Is Off
================================================================
2360000	4088	4090	292	0		1400	0	0
2370000	4088	4090	292	0		1400	0	0
2380000	4088	4090	292	0		1400	0	0
Display Off Check
  an                   : 1111
  ph_ready             : 0
  FSM State            :        OFF
RESULT                 : PASS

================================================================
                                   TEST 11 - Recalibration Store
================================================================
2390000	4088	4090	300	0		1363	0	0
2400000	4088	4090	300	0		1363	0	0
2410000	4088	4090	300	0		1363	0	0
Calibration Summary
  Slope (actual)        : 300
  Intercept (actual)    : 0
  Slope (expected)      : 300
  Intercept (expected)  : 0
RESULT                 : PASS

================================================================
                          TEST 12 - Power On After Recalibration
================================================================
2420000	4088	4090	300	0		1363	0	1
2430000	4088	4090	300	0		1363	0	1
Power On Summary
  FSM State            :    STANDBY
  ph_ready             : 0
RESULT                 : PASS

================================================================
                          TEST 13 - Recalibrated Measure pH 7.00
================================================================
2440000	2100	4090	300	0		1363	0	1
2450000	2101	4090	300	0		1363	0	1
2460000	2102	4090	300	0		1363	0	1
2470000	2100	4090	300	0		1363	0	1
2480000	2101	4090	300	0		1363	0	1
2490000	2102	4090	300	0		1363	0	1
2500000	2100	4090	300	0		1363	0	1
2510000	2101	4090	300	0		1363	0	1
2520000	2102	4090	300	0		1363	0	1
2530000	2100	2102	300	0		700	1	2
2540000	2100	2102	300	0		700	1	2
2550000	2100	2102	300	0		700	1	2
2560000	2100	2102	300	0		700	1	2
2570000	2100	2102	300	0		700	1	2
2580000	2100	2102	300	0		700	1	2
2590000	2100	2102	300	0		700	1	2
2600000	2100	2102	300	0		700	1	2
2610000	2100	2102	300	0		700	1	2
2620000	2100	2102	300	0		700	1	2
2630000	2100	2102	300	0		700	1	2
Measurement Summary
  ADC Input Base        : 2100
  Latched ADC Value     : 2102
  FSM State             :    DISPLAY
  ph_ready              : 1
  Slope                 : 300
  Intercept             : 0
  Computed pH (x100)    : 700
  Expected pH (x100)    : 700
  Display Digits        : 0700
  Decimal Point (dp)    : 1
  Check pH Value        : PASS
  Check Display Digits  : PASS
RESULT                 : PASS
2640000	2100	2102	300	0		700	1	2
2650000	2100	2102	300	0		700	1	2
2660000	2100	2102	300	0		700	1	2
2670000	2100	2102	300	0		700	1	2
2680000	2100	2102	300	0		700	1	2
2690000	2100	2102	300	0		700	1	2
2700000	2100	2102	300	0		700	1	2
2710000	2100	2102	300	0		700	1	2
2720000	2100	2102	300	0		700	1	2
2730000	2100	2102	300	0		700	1	2
2740000	2100	2102	300	0		700	0	1
2750000	2100	2102	300	0		700	0	1

================================================================
                         TEST 14 - Recalibrated Measure pH 10.00
================================================================
2760000	3000	2102	300	0		700	0	1
2770000	3001	2102	300	0		700	0	1
2780000	3002	2102	300	0		700	0	1
2790000	3000	2102	300	0		700	0	1
2800000	3001	2102	300	0		700	0	1
2810000	3002	2102	300	0		700	0	1
2820000	3000	2102	300	0		700	0	1
2830000	3001	2102	300	0		700	0	1
2840000	3002	2102	300	0		700	0	1
2850000	3000	3002	300	0		1000	1	2
2860000	3000	3002	300	0		1000	1	2
2870000	3000	3002	300	0		1000	1	2
2880000	3000	3002	300	0		1000	1	2
2890000	3000	3002	300	0		1000	1	2
2900000	3000	3002	300	0		1000	1	2
2910000	3000	3002	300	0		1000	1	2
2920000	3000	3002	300	0		1000	1	2
2930000	3000	3002	300	0		1000	1	2
2940000	3000	3002	300	0		1000	1	2
2950000	3000	3002	300	0		1000	1	2
2960000	3000	3002	300	0		1000	1	2
Measurement Summary
  ADC Input Base        : 3000
  Latched ADC Value     : 3002
  FSM State             :    DISPLAY
  ph_ready              : 1
  Slope                 : 300
  Intercept             : 0
  Computed pH (x100)    : 1000
  Expected pH (x100)    : 1000
  Display Digits        : 1000
  Decimal Point (dp)    : 1
  Check pH Value        : PASS
  Check Display Digits  : PASS
RESULT                 : PASS
2970000	3000	3002	300	0		1000	1	2
2980000	3000	3002	300	0		1000	1	2
2990000	3000	3002	300	0		1000	1	2
3000000	3000	3002	300	0		1000	1	2
3010000	3000	3002	300	0		1000	1	2
3020000	3000	3002	300	0		1000	1	2
3030000	3000	3002	300	0		1000	1	2
3040000	3000	3002	300	0		1000	1	2
3050000	3000	3002	300	0		1000	1	2
3060000	3000	3002	300	0		1000	0	1
3070000	3000	3002	300	0		1000	0	1

================================================================
                                                   FINAL SUMMARY
================================================================
Comprehensive full-system integration test completed.
Review PASS/FAIL markers above for each scenario.
Waveform file generated: out/ph_meter_tb.vcd
3080000	3000	3002	300	0		1000	0	1
3090000	3000	3002	300	0		1000	0	1
3100000	3000	3002	300	0		1000	0	1
3110000	3000	3002	300	0		1000	0	1
3120000	3000	3002	300	0		1000	0	1
tests/ph_meter_tb.v:456: $finish called at 3125000 (1ps)



==================================================
===== stability_checker_tb.vvp =====
==================================================

VCD info: dumpfile out/stability_checker_tb.vcd opened for output.
Time	clk	rst	en	sense	stable	stable_sense
0	0	1	0	0	0	0
5000	1	1	0	0	0	0
10000	0	1	0	0	0	0
12000	0	0	0	0	0	0
15000	1	0	0	0	0	0
20000	0	0	0	0	0	0
22000	0	0	0	100	0	0
25000	1	0	0	100	0	0
30000	0	0	0	100	0	0
32000	0	0	0	101	0	0
35000	1	0	0	101	0	0
40000	0	0	0	101	0	0
42000	0	0	1	200	0	0
45000	1	0	1	200	0	0
50000	0	0	1	200	0	0
52000	0	0	1	202	0	0
55000	1	0	1	202	0	0
60000	0	0	1	202	0	0
62000	0	0	1	201	0	0
65000	1	0	1	201	0	0
70000	0	0	1	201	0	0
72000	0	0	1	203	0	0
75000	1	0	1	203	0	0
80000	0	0	1	203	0	0
82000	0	0	1	204	0	0
85000	1	0	1	204	0	0
90000	0	0	1	204	0	0
92000	0	0	1	202	0	0
95000	1	0	1	202	0	0
100000	0	0	1	202	0	0
102000	0	0	1	205	0	0
105000	1	0	1	205	0	0
110000	0	0	1	205	0	0
112000	0	0	1	204	0	0
115000	1	0	1	204	0	0
120000	0	0	1	204	0	0
122000	0	0	1	203	0	0
125000	1	0	1	203	1	203
130000	0	0	1	203	1	203
132000	0	0	1	204	1	203
135000	1	0	1	204	1	204
140000	0	0	1	204	1	204
142000	0	0	1	202	1	204
145000	1	0	1	202	1	202
150000	0	0	1	202	1	202
152000	0	0	1	260	1	202
155000	1	0	1	260	0	202
160000	0	0	1	260	0	202
162000	0	0	1	261	0	202
165000	1	0	1	261	0	202
170000	0	0	1	261	0	202
172000	0	0	1	262	0	202
175000	1	0	1	262	0	202
180000	0	0	1	262	0	202
182000	0	0	1	300	0	202
185000	1	0	1	300	0	202
190000	0	0	1	300	0	202
192000	0	0	1	302	0	202
195000	1	0	1	302	0	202
200000	0	0	1	302	0	202
202000	0	0	1	301	0	202
205000	1	0	1	301	0	202
210000	0	0	1	301	0	202
212000	0	0	1	303	0	202
215000	1	0	1	303	0	202
220000	0	0	1	303	0	202
222000	0	0	1	304	0	202
225000	1	0	1	304	0	202
230000	0	0	1	304	0	202
232000	0	0	1	303	0	202
235000	1	0	1	303	0	202
240000	0	0	1	303	0	202
242000	0	0	1	302	0	202
245000	1	0	1	302	0	202
250000	0	0	1	302	0	202
252000	0	0	1	301	0	202
255000	1	0	1	301	0	202
260000	0	0	1	301	0	202
262000	0	0	1	300	0	202
265000	1	0	1	300	1	300
270000	0	0	1	300	1	300
272000	0	0	0	301	1	300
275000	1	0	0	301	0	300
280000	0	0	0	301	0	300
285000	1	0	0	301	0	300
290000	0	0	0	301	0	300
292000	0	0	1	400	0	300
295000	1	0	1	400	0	300
300000	0	0	1	400	0	300
302000	0	0	1	401	0	300
305000	1	0	1	401	0	300
310000	0	0	1	401	0	300
312000	0	1	1	401	0	0
315000	1	1	1	401	0	0
320000	0	1	1	401	0	0
322000	0	0	1	401	0	0
325000	1	0	1	401	0	0
330000	0	0	1	401	0	0
332000	0	0	1	500	0	0
335000	1	0	1	500	0	0
340000	0	0	1	500	0	0
342000	0	0	1	501	0	0
345000	1	0	1	501	0	0
350000	0	0	1	501	0	0
352000	0	0	1	502	0	0
355000	1	0	1	502	0	0
360000	0	0	1	502	0	0
362000	0	0	1	501	0	0
365000	1	0	1	501	0	0
370000	0	0	1	501	0	0
372000	0	0	1	500	0	0
375000	1	0	1	500	0	0
380000	0	0	1	500	0	0
382000	0	0	1	502	0	0
385000	1	0	1	502	0	0
390000	0	0	1	502	0	0
392000	0	0	1	503	0	0
395000	1	0	1	503	0	0
400000	0	0	1	503	0	0
402000	0	0	1	501	0	0
405000	1	0	1	501	0	0
410000	0	0	1	501	0	0
412000	0	0	1	500	0	0
415000	1	0	1	500	1	500
420000	0	0	1	500	1	500
425000	1	0	1	500	1	500
430000	0	0	1	500	1	500
435000	1	0	1	500	1	500
440000	0	0	1	500	1	500
445000	1	0	1	500	1	500
450000	0	0	1	500	1	500
tests/stability_checker_tb.v:186: $finish called at 452000 (1ps)



==================================================
===== standby_tb.vvp =====
==================================================

VCD info: dumpfile out/standby_tb.vcd opened for output.
time	state		sense	latched	ready
10000	       OFF	0	0	0
20000	       OFF	0	0	0
30000	       OFF	0	0	0
40000	       OFF	0	0	0
PASS: state=0 ready=0
50000	   STANDBY	0	0	0
60000	   STANDBY	0	0	0
PASS: state=1 ready=0
70000	   STANDBY	2054	0	0
80000	   STANDBY	2041	0	0
90000	   STANDBY	2053	0	0
100000	   STANDBY	2042	0	0
110000	   STANDBY	2042	0	0
120000	   STANDBY	2042	0	0
PASS: state=1 ready=0
130000	   STANDBY	2048	0	0
140000	   STANDBY	2049	0	0
150000	   STANDBY	2050	0	0
160000	   STANDBY	2048	0	0
170000	   STANDBY	2049	0	0
180000	   STANDBY	2050	0	0
190000	   STANDBY	2048	0	0
200000	   STANDBY	2049	0	0
210000	   STANDBY	2050	0	0
220000	   DISPLAY	2048	2050	1
230000	   DISPLAY	2048	2050	1
PASS: state=2 ready=1
PASS: latched sense=2050
240000	   DISPLAY	2048	2050	1
250000	   DISPLAY	2048	2050	1
260000	   DISPLAY	2048	2050	1
270000	   DISPLAY	2048	2050	1
280000	   DISPLAY	2048	2050	1
290000	   DISPLAY	2048	2050	1
300000	   DISPLAY	2048	2050	1
310000	   DISPLAY	2048	2050	1
320000	   DISPLAY	2048	2050	1
330000	   DISPLAY	2048	2050	1
340000	   DISPLAY	2048	2050	1
350000	   DISPLAY	2048	2050	1
360000	   DISPLAY	2048	2050	1
370000	   DISPLAY	2048	2050	1
380000	   DISPLAY	2048	2050	1
390000	   DISPLAY	2048	2050	1
400000	   DISPLAY	2048	2050	1
410000	   DISPLAY	2048	2050	1
420000	   DISPLAY	2048	2050	1
430000	   STANDBY	2048	2050	0
PASS: state=1 ready=0
440000	   STANDBY	1170	2050	0
450000	   STANDBY	1171	2050	0
460000	   STANDBY	1172	2050	0
470000	   STANDBY	1170	2050	0
480000	   STANDBY	1171	2050	0
490000	   STANDBY	1172	2050	0
500000	   STANDBY	1170	2050	0
510000	   STANDBY	1171	2050	0
520000	   STANDBY	1172	2050	0
530000	   STANDBY	1170	2050	0
540000	   DISPLAY	1170	1172	1
PASS: state=2 ready=1
PASS: latched sense=1172
550000	   DISPLAY	1170	1172	1
560000	   DISPLAY	1170	1172	1
570000	   DISPLAY	1170	1172	1
580000	   DISPLAY	1170	1172	1
590000	   DISPLAY	1170	1172	1
600000	   DISPLAY	1170	1172	1
610000	   DISPLAY	1170	1172	1
620000	   DISPLAY	1170	1172	1
630000	   DISPLAY	1170	1172	1
640000	   DISPLAY	1170	1172	1
650000	   DISPLAY	1170	1172	1
660000	   DISPLAY	1170	1172	1
670000	   DISPLAY	1170	1172	1
680000	   DISPLAY	1170	1172	1
690000	   DISPLAY	1170	1172	1
700000	   DISPLAY	1170	1172	1
710000	   DISPLAY	1170	1172	1
720000	   DISPLAY	1170	1172	1
730000	   DISPLAY	1170	1172	1
740000	   DISPLAY	1170	1172	1
750000	   STANDBY	1170	1172	0
PASS: state=1 ready=0
760000	   STANDBY	2925	1172	0
770000	   STANDBY	2926	1172	0
780000	   STANDBY	2927	1172	0
790000	   STANDBY	2925	1172	0
800000	   STANDBY	2926	1172	0
810000	   STANDBY	2927	1172	0
820000	   STANDBY	2925	1172	0
830000	   STANDBY	2926	1172	0
840000	   STANDBY	2927	1172	0
850000	   STANDBY	2925	1172	0
860000	   DISPLAY	2925	2927	1
PASS: state=2 ready=1
PASS: latched sense=2927
870000	   DISPLAY	2925	2927	1
880000	   DISPLAY	2925	2927	1
890000	   DISPLAY	2925	2927	1
900000	   DISPLAY	2925	2927	1
910000	   DISPLAY	2925	2927	1
920000	   DISPLAY	2925	2927	1
930000	   DISPLAY	2925	2927	1
940000	   DISPLAY	2925	2927	1
950000	   DISPLAY	2925	2927	1
960000	   DISPLAY	2925	2927	1
970000	   DISPLAY	2925	2927	1
980000	   DISPLAY	2925	2927	1
990000	   DISPLAY	2925	2927	1
1000000	   DISPLAY	2925	2927	1
1010000	   DISPLAY	2925	2927	1
1020000	   DISPLAY	2925	2927	1
1030000	   DISPLAY	2925	2927	1
1040000	   DISPLAY	2925	2927	1
1050000	   DISPLAY	2925	2927	1
1060000	   DISPLAY	2925	2927	1
1070000	   STANDBY	2925	2927	0
PASS: state=1 ready=0
1080000	   STANDBY	2006	2927	0
